\relax 
\@writefile{toc}{\contentsline {chapter}{\numberline {VII} DISKUSI}{42}\protected@file@percent }
\@writefile{lof}{\addvspace {10\p@ }}
\@writefile{lot}{\addvspace {10\p@ }}
\@writefile{toc}{\contentsline {section}{\numberline {7.1}Kesimpulan}{42}\protected@file@percent }
\@writefile{toc}{\contentsline {paragraph}{}{42}\protected@file@percent }
\@writefile{toc}{\contentsline {section}{\numberline {7.2}Saran}{42}\protected@file@percent }
\@writefile{toc}{\contentsline {paragraph}{}{42}\protected@file@percent }
\@setckpt{section/chapter7}{
\setcounter{page}{43}
\setcounter{equation}{0}
\setcounter{enumi}{5}
\setcounter{enumii}{0}
\setcounter{enumiii}{0}
\setcounter{enumiv}{0}
\setcounter{footnote}{0}
\setcounter{mpfootnote}{0}
\setcounter{part}{0}
\setcounter{chapter}{7}
\setcounter{section}{2}
\setcounter{subsection}{0}
\setcounter{subsubsection}{0}
\setcounter{paragraph}{0}
\setcounter{subparagraph}{0}
\setcounter{figure}{0}
\setcounter{table}{0}
}
