\relax 
\citation{ng2016artificial}
\citation{warwick2013artificial}
\citation{suhartono_2013}
\citation{al2015improving}
\@writefile{toc}{\contentsline {chapter}{\numberline {I}PENDAHULUAN}{1}\protected@file@percent }
\@writefile{lof}{\addvspace {10\p@ }}
\@writefile{lot}{\addvspace {10\p@ }}
\@writefile{toc}{\contentsline {section}{\numberline {1.1}Latar Belakang}{1}\protected@file@percent }
\@writefile{toc}{\contentsline {paragraph}{}{1}\protected@file@percent }
\@writefile{toc}{\contentsline {paragraph}{}{1}\protected@file@percent }
\@writefile{toc}{\contentsline {paragraph}{}{1}\protected@file@percent }
\@writefile{toc}{\contentsline {section}{\numberline {1.2}Identifikasi Masalah}{2}\protected@file@percent }
\@writefile{toc}{\contentsline {paragraph}{}{2}\protected@file@percent }
\@writefile{toc}{\contentsline {section}{\numberline {1.3}Tujuan dan Manfaat}{2}\protected@file@percent }
\@writefile{toc}{\contentsline {subsection}{\numberline {1.3.1}Tujuan}{2}\protected@file@percent }
\@writefile{toc}{\contentsline {paragraph}{}{2}\protected@file@percent }
\@writefile{toc}{\contentsline {subsection}{\numberline {1.3.2}Manfaat}{2}\protected@file@percent }
\@writefile{toc}{\contentsline {paragraph}{}{2}\protected@file@percent }
\@writefile{toc}{\contentsline {section}{\numberline {1.4}Ruang Lingkup}{3}\protected@file@percent }
\@writefile{toc}{\contentsline {paragraph}{}{3}\protected@file@percent }
\@setckpt{section/chapter1}{
\setcounter{page}{4}
\setcounter{equation}{0}
\setcounter{enumi}{4}
\setcounter{enumii}{0}
\setcounter{enumiii}{0}
\setcounter{enumiv}{0}
\setcounter{footnote}{0}
\setcounter{mpfootnote}{0}
\setcounter{part}{0}
\setcounter{chapter}{1}
\setcounter{section}{4}
\setcounter{subsection}{0}
\setcounter{subsubsection}{0}
\setcounter{paragraph}{0}
\setcounter{subparagraph}{0}
\setcounter{figure}{0}
\setcounter{table}{0}
\setcounter{caption@flags}{0}
\setcounter{ContinuedFloat}{0}
}
