\relax 
\@writefile{toc}{\contentsline {chapter}{\numberline {VI}KESIMPULAN}{32}\protected@file@percent }
\@writefile{lof}{\addvspace {10\p@ }}
\@writefile{lot}{\addvspace {10\p@ }}
\@writefile{toc}{\contentsline {section}{\numberline {6.1}Kesimpulan Masalah}{32}\protected@file@percent }
\@writefile{toc}{\contentsline {paragraph}{}{32}\protected@file@percent }
\@writefile{lof}{\contentsline {figure}{\numberline {VI.1}{\ignorespaces Hasil Pengujian Waktu Balas Sistem\relax }}{32}\protected@file@percent }
\newlabel{res}{{VI.1}{32}}
\@writefile{toc}{\contentsline {section}{\numberline {6.2}Kesimpulan Metode}{32}\protected@file@percent }
\@writefile{toc}{\contentsline {paragraph}{}{32}\protected@file@percent }
\@writefile{lot}{\contentsline {table}{\numberline {VI.1}{\ignorespaces Matirx Data Primer dan Pembanding\relax }}{33}\protected@file@percent }
\newlabel{matrixComparison}{{VI.1}{33}}
\@writefile{toc}{\contentsline {section}{\numberline {6.3}Kesimpulan Penelitian}{33}\protected@file@percent }
\@writefile{toc}{\contentsline {paragraph}{}{33}\protected@file@percent }
\@setckpt{section/chapter6}{
\setcounter{page}{34}
\setcounter{equation}{0}
\setcounter{enumi}{5}
\setcounter{enumii}{0}
\setcounter{enumiii}{0}
\setcounter{enumiv}{0}
\setcounter{footnote}{0}
\setcounter{mpfootnote}{0}
\setcounter{part}{0}
\setcounter{chapter}{6}
\setcounter{section}{3}
\setcounter{subsection}{0}
\setcounter{subsubsection}{0}
\setcounter{paragraph}{0}
\setcounter{subparagraph}{0}
\setcounter{figure}{1}
\setcounter{table}{1}
\setcounter{caption@flags}{2}
\setcounter{ContinuedFloat}{0}
}
